arithmatic_operations/add/wave.vcd
$date
	Mon Jun 26 10:33:29 2023
$end
$version
	Icarus Verilog
$end
$timescale
	1s
$end
$scope module tb_add $end
$var wire 32 ! out [31:0] $end
$var reg 32 " in1 [31:0] $end
$var reg 32 # in2 [31:0] $end
$scope module inst_add $end
$var wire 32 $ in1 [31:0] $end
$var wire 32 % in2 [31:0] $end
$var reg 32 & out [31:0] $end
$upscope $end
$scope task stimulus $end
$upscope $end
$upscope $end
$enddefinitions $end
#0
$dumpvars
b11010 &
b1000 %
b10010 $
b1000 #
b10010 "
b11010 !
$end
#5
b110 !
b110 &
b110 #
b110 %
b0 "
b0 $
#10
b101000 !
b101000 &
b11000 #
b11000 %
b10000 "
b10000 $
#15
b111 !
b111 &
b1 #
b1 %
b110 "
b110 $
#20
b100000 !
b100000 &
b10000 #
b10000 %
b10000 "
b10000 $
#25
b101010 !
b101010 &
b10011 #
b10011 %
b10111 "
b10111 $
#30
b110110 !
b110110 &
b11000 #
b11000 %
b11110 "
b11110 $
#35
b101011 !
b101011 &
b1100 #
b1100 %
b11111 "
b11111 $
#40
b10110 !
b10110 &
b1010 #
b1010 %
b1100 "
b1100 $
#45
b100101 !
b100101 &
b111 #
b111 %
b11110 "
b11110 $
