arithmatic_operations/mult/wave.vcd
$date
	Mon Jun 26 10:39:12 2023
$end
$version
	Icarus Verilog
$end
$timescale
	1s
$end
$scope module tb_mult $end
$var wire 32 ! out [31:0] $end
$var reg 32 " in1 [31:0] $end
$var reg 32 # in2 [31:0] $end
$scope module inst_mult $end
$var wire 32 $ in1 [31:0] $end
$var wire 32 % in2 [31:0] $end
$var reg 32 & out [31:0] $end
$upscope $end
$scope task stimulus $end
$upscope $end
$upscope $end
$enddefinitions $end
#0
$dumpvars
b10010000 &
b1000 %
b10010 $
b1000 #
b10010 "
b10010000 !
$end
#5
b0 !
b0 &
b110 #
b110 %
b0 "
b0 $
#10
b110000000 !
b110000000 &
b11000 #
b11000 %
b10000 "
b10000 $
#15
b110 !
b110 &
b1 #
b1 %
b110 "
b110 $
#20
b100000000 !
b100000000 &
b10000 #
b10000 %
b10000 "
b10000 $
#25
b110110101 !
b110110101 &
b10011 #
b10011 %
b10111 "
b10111 $
#30
b1011010000 !
b1011010000 &
b11000 #
b11000 %
b11110 "
b11110 $
#35
b101110100 !
b101110100 &
b1100 #
b1100 %
b11111 "
b11111 $
#40
b1111000 !
b1111000 &
b1010 #
b1010 %
b1100 "
b1100 $
#45
b11010010 !
b11010010 &
b111 #
b111 %
b11110 "
b11110 $
