gates/bitwise/bitwise_nand/wave.vcd
$date
	Mon Jun 26 10:51:55 2023
$end
$version
	Icarus Verilog
$end
$timescale
	1s
$end
$scope module tb_nand_gate $end
$var wire 32 ! out [31:0] $end
$var reg 32 " in1 [31:0] $end
$var reg 32 # in2 [31:0] $end
$scope module inst_nand_gate $end
$var wire 32 $ in1 [31:0] $end
$var wire 32 % in2 [31:0] $end
$var reg 32 & out [31:0] $end
$upscope $end
$scope task stimulus $end
$upscope $end
$upscope $end
$enddefinitions $end
#0
$dumpvars
b11111111111111111111111111111111 &
b1000 %
b10010 $
b1000 #
b10010 "
b11111111111111111111111111111111 !
$end
#5
b110 #
b110 %
b0 "
b0 $
#10
b11111111111111111111111111101111 !
b11111111111111111111111111101111 &
b11000 #
b11000 %
b10000 "
b10000 $
#15
b11111111111111111111111111111111 !
b11111111111111111111111111111111 &
b1 #
b1 %
b110 "
b110 $
#20
b11111111111111111111111111101111 !
b11111111111111111111111111101111 &
b10000 #
b10000 %
b10000 "
b10000 $
#25
b11111111111111111111111111101100 !
b11111111111111111111111111101100 &
b10011 #
b10011 %
b10111 "
b10111 $
#30
b11111111111111111111111111100111 !
b11111111111111111111111111100111 &
b11000 #
b11000 %
b11110 "
b11110 $
#35
b11111111111111111111111111110011 !
b11111111111111111111111111110011 &
b1100 #
b1100 %
b11111 "
b11111 $
#40
b11111111111111111111111111110111 !
b11111111111111111111111111110111 &
b1010 #
b1010 %
b1100 "
b1100 $
#45
b11111111111111111111111111111001 !
b11111111111111111111111111111001 &
b111 #
b111 %
b11110 "
b11110 $
